…
# Вывод результата, группируя по домену
print(domain_geo_info_final_sorted)
```

    # A tibble: 1,213 × 5
       domain                    ip_address       country       city       isp      
       <chr>                     <chr>            <chr>         <chr>      <chr>    
     1 teredo.ipv6.microsoft.com fec0:0:0:ffff::2 Switzerland   Morat      Internet…
     2 teredo.ipv6.microsoft.com fec0:0:0:ffff::1 Switzerland   Morat      Internet…
     3 teredo.ipv6.microsoft.com fec0:0:0:ffff::3 Switzerland   Morat      Internet…
     4 teredo.ipv6.microsoft.com 192.168.207.4    Частный IP    Частный IP Частный …
     5 teredo.ipv6.microsoft.com 192.168.0.1      Частный IP    Частный IP Частный …
     6 tools.google.com          192.168.207.4    Частный IP    Частный IP Частный …
     7 tools.google.com          192.168.206.44   Частный IP    Частный IP Частный …
     8 tools.google.com          156.154.70.22    United States New York   Neustar …
     9 tools.google.com          8.26.56.26       United States Clifton    Flexenti…
    10 tools.google.com          68.87.75.198     United States Pittsburgh Comcast …
    # ℹ 1,203 more rows
…
