…
print(open_networks)
# A tibble: 42 × 4
   bssid             essid         power beacons
   <chr>             <chr>         <int>   <int>
 1 E8:28:C1:DC:B2:52 MIREA_HOTSPOT   -63     251
 2 E8:28:C1:DC:B2:50 MIREA_GUESTS    -63     260
 3 E8:28:C1:DC:B2:51 NA              -63     279
 4 E8:28:C1:DC:FF:F2 NA               -1       0
 5 00:25:00:FF:94:73 NA               -1       0
 6 E8:28:C1:DD:04:52 MIREA_HOTSPOT   -67       4
 7 E8:28:C1:DE:74:31 NA              -82       2
 8 E8:28:C1:DE:74:32 MIREA_HOTSPOT   -69       1
 9 E8:28:C1:DC:C8:32 MIREA_HOTSPOT   -69      12
10 E8:28:C1:DD:04:50 MIREA_GUESTS    -78      20
# ℹ 32 more rows
# ℹ Use `print(n = ...)` to see more rows
…
=== 2. ПРОИЗВОДИТЕЛИ УСТРОЙСТВ ===
get_oui <- function(mac) {
    str_replace_all(mac, ":", "") %>%
        str_sub(1, 6) %>%
        str_to_upper()
}
 
ap_with_vendor <- ap_clean %>%
  mutate(oui = get_oui(bssid)) %>%
  select(bssid, oui, essid, privacy)
 
print(ap_with_vendor)
# A tibble: 169 × 4
   bssid             oui    essid                    privacy
   <chr>             <chr>  <chr>                    <chr>  
 1 BE:F1:71:D5:17:8B BEF171 C322U13 3965             WPA2   
 2 6E:C7:EC:16:DA:1A 6EC7EC Cnet                     WPA2   
 3 9A:75:A8:B9:04:1E 9A75A8 KC                       WPA2   
 4 4A:EC:1E:DB:BF:95 4AEC1E POCO X5 Pro 5G           WPA2   
 5 D2:6D:52:61:51:5D D26D52 NA                       WPA2   
 6 E8:28:C1:DC:B2:52 E828C1 MIREA_HOTSPOT            OPN    
 7 BE:F1:71:D6:10:D7 BEF171 C322U21 0566             WPA2   
 8 0A:C5:E1:DB:17:7B 0AC5E1 AndroidAP177B            WPA2   
 9 38:1A:52:0D:84:D7 381A52 EBFCD57F-EE81fI_DL_1AO2T WPA2   
10 BE:F1:71:D5:0E:53 BEF171 C322U06 9080             WPA2   
# ℹ 159 more rows
# ℹ Use `print(n = ...)` to see more rows
…
=== 7. ПРОИЗВОДИТЕЛИ КЛИЕНТСКИХ УСТРОЙСТВ ===
clients_with_vendor <- clients_clean %>%
    mutate(oui = get_oui(station_mac)) %>%
    select(station_mac, oui, bssid, probed_essids)

print(clients_with_vendor)
# A tibble: 12,081 × 4
   station_mac       oui    bssid             probed_essids          
   <chr>             <chr>  <chr>             <chr>                  
 1 CA:66:3B:8F:56:DD CA663B BE:F1:71:D5:17:8B C322U13 3965           
 2 96:35:2D:3D:85:E6 96352D (not associated)  IT2 Wireless           
 3 5C:3A:45:9E:1A:7B 5C3A45 BE:F1:71:D6:10:D7 C322U21 0566           
 4 C0:E4:34:D8:E7:E5 C0E434 BE:F1:71:D5:17:8B C322U13 3965           
 5 5E:8E:A6:5E:34:81 5E8EA6 (not associated)  NA                     
 6 10:51:07:CB:33:E7 105107 (not associated)  NA                     
 7 68:54:5A:40:35:9E 68545A 1E:93:E3:1B:3C:F4 C322U06 5179,Galaxy A71
 8 74:4C:A1:70:CE:F7 744CA1 E8:28:C1:DC:FF:F2 NA                     
 9 8A:A3:5A:33:76:57 8AA35A 00:25:00:FF:94:73 NA                     
10 CA:54:C4:8B:B5:3A CA54C4 00:26:99:F2:7A:E2 GIVC                   
# ℹ 12,071 more rows
# ℹ Use `print(n = ...)` to see more rows
…
